[
    {
        "name": "blog",
        "inputs": [
            {
                "name": "name",
                "type": "input"
            },
            {
                "name": "description",
                "type": "textarea"
            },
            {
                "name": "image",
                "type": "image"
            }
        ]
    }
]